{
    "uchar": [
        "numberOfInnermostPixelLayerHits",
        "numberOfNextToInnermostPixelLayerHits",
        "numberOfInnermostPixelLayerSharedHits",
        "numberOfInnermostPixelLayerSplitHits",
        "numberOfPixelHits",
        "numberOfPixelHoles",
        "numberOfPixelSharedHits",
        "numberOfPixelSplitHits",
        "numberOfSCTHits",
        "numberOfSCTHoles",
        "numberOfSCTSharedHits"
    ],
    "ints": [
        "truthOriginLabel",
        "truthVertexIndex",
        "SV1VertexIndex",
        "JFVertexIndex"
    ],
    "floats": [
        "chiSquared",
        "numberDoF",
        "IP3D_signed_d0",
        "IP2D_signed_d0",
        "IP3D_signed_z0",
        "btagIp_d0",
        "btagIp_z0SinTheta",
        "phi",
        "theta",
        "qOverP"
    ],
    "flavortagdiscriminants_sequences": [
        "IP3D_signed_d0_significance",
        "IP3D_signed_z0_significance",
        "pt",
        "eta",
        "phiError",
        "thetaError",
        "qOpError"
    ]
}
