mc16_13TeV:mc16_13TeV.361024.Pythia8EvtGen_A14NNPDF23LO_jetjet_JZ4W.deriv.DAOD_FTAG5.e3668_s3126_r10201_p3990
mc16_13TeV:mc16_13TeV.301502.MadGraphPythia8EvtGen_A14NNPDF23LO_RS_G_hh_bbbb_c10_M1800.deriv.DAOD_FTAG5.e3820_s3126_r9364_p3990
mc16_13TeV:mc16_13TeV.301332.Pythia8EvtGen_A14NNPDF23LO_zprime2750_tt.deriv.DAOD_FTAG5.e4061_s3126_r9364_p3990
mc16_13TeV:mc16_13TeV.301331.Pythia8EvtGen_A14NNPDF23LO_zprime2500_tt.deriv.DAOD_FTAG5.e4061_s3126_r9364_p3990
mc16_13TeV:mc16_13TeV.301280.Pythia8EvtGen_A14NNPDF23LO_Wprime_WZqqqq_m3600.deriv.DAOD_FTAG5.e3743_s3126_r9364_p3990
