{
    "jet_collection": "AntiKt4EMPFlowJets",
    "jet_calibration_collection": "AntiKt4EMPFlow",
    "jet_calib_file": "JES_MC16Recommendation_Consolidated_PFlow_Apr2019_Rel21.config",
    "cal_seq": "JetArea_Residual_EtaJES_GSC_Smear",
    "cal_area": "00-04-82",
    "do_calibration": "true",
    "vr_cuts": "false",
    "jvt_cut": 0.5,
    "pt_cut": 20000,
    "vertex_collection": "PrimaryVertices",
    "n_jets_per_event": 0,
    "dl2_configs": [
        {
            "nn_file_path": "dev/BTagging/20210517/dipsLoose/antikt4empflow/network.json",
            "remapping": {
                "btagIp_":"poboyIp_"
            }
        }
    ],
    "variables": {
        "btag": {
            "file": "fragments/minimal-variables.json",
            "floats": [
                "dipsLoose20210517_pb",
                "dipsLoose20210517_pc",
                "dipsLoose20210517_pu"
            ]
        }
    },
    "tracks": [
        {
            "ip_prefix": "poboyIp_",
            "n_to_save": 40,
            "selection": {
                "file": "fragments/ip3d-loose-track-cuts.json"
            },
            "sort_order": "abs_beamspot_d0",
            "source": "btagging",
            "input_name": "BTagTrackToJetAssociator",
            "output_name": "tracks",
            "variables": {
                "file": "fragments/minimal-track-variables.json"
            }
        }
    ],
    "decorate": {
        "jet_aug": "false",
        "btag_jes": "true",
        "soft_muon": "false",
        "track_truth_info": "false",
        "track_sv_info": "false"
    }
}
