{
    "floats": [
        "Split12",
        "Split23",
        "Qw",
        "PlanarFlow",
        "Angularity",
        "Aplanarity",
        "ZCut12",
        "KtDR"
    ],
    "parent_ints": [
        "GhostHBosonsCount",
        "GhostWBosonsCount",
        "GhostZBosonsCount",
        "GhostTQuarksFinalCount",
        "GhostBHadronsFinalCount",
        "GhostCHadronsFinalCount"
    ],
    "ints": [
    ]
}
